<?xml version="1.0" encoding="utf-8"?>
<!-- Generator: Adobe Illustrator 19.0.0, SVG Export Plug-In . SVG Version: 6.00 Build 0)  -->
<svg version="1.1" id="Layer_1" xmlns="http://www.w3.org/2000/svg" xmlns:xlink="http://www.w3.org/1999/xlink" x="0px" y="0px"
	 viewBox="0 0 694.9 382.6" style="enable-background:new 0 0 694.9 382.6;" xml:space="preserve">
<style type="text/css">
	.st0{fill:#76C6DD; fill-opacity:0; }
	.st1{clip-path:url(#XMLID_2_);}
	.st2{clip-path:url(#XMLID_3_);}
	.st3{clip-path:url(#XMLID_4_);}
	.st4{clip-path:url(#XMLID_4_);fill:#FFFFFF;}
	.st5{clip-path:url(#XMLID_4_);fill:none;stroke:#000000;stroke-width:0.5;stroke-miterlimit:10;}
	.st6{opacity:0.95;clip-path:url(#XMLID_4_);}
	.st7{clip-path:url(#XMLID_5_);fill-rule:evenodd;clip-rule:evenodd;fill:#aaaaaa;}
	.st8{clip-path:url(#XMLID_5_);fill:none;stroke:#aaaaaa;stroke-width:0.25;stroke-miterlimit:10;}
	.st9{clip-path:url(#XMLID_5_);fill:none;stroke:#aaaaaa;stroke-width:0.5;stroke-miterlimit:10;}
	.st17{clip-path:url(#XMLID_6_);}
	.st18{clip-path:url(#XMLID_7_);fill:#FFFFFF;}
</style>
<rect id="XMLID_48111_" class="st0" width="694.5" height="383.5"/>
<g id="XMLID_16268_">
	<g id="XMLID_16269_">
		<defs>
			<rect id="XMLID_16270_" width="694.5" height="383.5"/>
		</defs>
		<clipPath id="XMLID_2_">
			<use xlink:href="#XMLID_16270_"  style="overflow:visible;"/>
		</clipPath>
		<g id="XMLID_16271_" class="st1">
			<defs>
				<rect id="XMLID_16272_" width="694.5" height="383.5"/>
			</defs>
			<clipPath id="XMLID_3_">
				<use xlink:href="#XMLID_16272_"  style="overflow:visible;"/>
			</clipPath>
			<g id="XMLID_16613_" class="st2">
				<defs>
					<rect id="XMLID_16614_" width="694.5" height="383.5"/>
				</defs>
				<clipPath id="XMLID_4_">
					<use xlink:href="#XMLID_16614_"  style="overflow:visible;"/>
				</clipPath>
				<path id="XMLID_16639_" class="st3" d="M129.9,57.7c-2.6-2.6-4.8-4.8-6.6-6.6c-1.9-1.9-3.2-3.2-5-5c-4.2-4.3-4-4.1-6.1-6.2
					c-3.2-3.2-3.2-3-6.4-6.2c-1.7-1.7-2.4-2.4-4-4c-1.4-1.3-1.9-1.7-3.4-3.1c-1.5-1.5-1.9-1.9-3.2-3.2c-0.7-0.7-1-1-4.4-4.1
					c-5.1-4.8-5.5-5.1-6.2-5.8c-0.9-0.9-1.4-1.4-2.2-2.2c-0.6-0.6-1.3-1.2-2.1-1.9c-1.1-0.9-1.7-1.4-2.2-1.6
					c-0.5-0.1-1.4-0.3-2.8,0.3c0.4,1.2,1.1,3.1,2.2,5.2c1.1,2,2.1,3.5,3.1,4.9c1.1,1.5,2.1,2.7,3.2,4.1c4.6,5.7,9,10.1,9,10.1
					c3.4,3.5,7.4,6.9,15.2,13.5c7.2,6.1,10.4,8.7,10.1,9.1c-0.1,0.2-1.1-0.1-6.6-3c-7.3-3.8-12.8-6.9-13.8-7.5
					c-3.6-2.1-2.9-1.7-9.1-5.3c-4.8-2.8-7.2-4.2-9.8-5.6c-5.4-3-5.3-2.7-8.6-4.6c-0.2-0.1-2.6-1.5-5.8-3.2c-3.8-2-4.6-2.2-4.8-2
					c-0.2,0.2,0.5,1.1,1.8,2.8c0.9,1.1,1.6,2,2.7,3.1c0.7,0.7,1.3,1.2,2.5,2.2c1.5,1.2,2.6,2.1,3.7,3c0.9,0.7,1.8,1.4,3,2.2
					c2.3,1.7,3.7,2.8,5.5,3.9c2.8,1.9,5.5,3.3,8.1,4.8c0.2,0.1,1,0.5,2,1.1c0.5,0.3,1.2,0.7,2.1,1.2c3.8,2.2,5.6,3.3,7.8,4.5
					c0.4,0.2-0.1,0,5.7,2.8c5.1,2.5,5,2.5,5.6,2.8c0.4,0.2,1.7,0.7,3.3,1.6c0.4,0.2,0.3,0.2,1,0.5c1.6,0.9,3.4,1.8,4.5,2.4
					c0.1,0,0.3,0.2,0.3,0.2c0,0-2.2-1.3-2.2-1.3c0,0,2.3,1.3,5.8,3.1c1,0.5,2,1,3,1.5c0,0,1.5,0.8,3.9,2.2c1.3,0.8,1.8,1.1,1.8,1.7
					c0,0.5-0.5,1.1-1,1.3c-0.2,0.1-0.6,0.1-1.7-0.4c-1-0.5-1.3-0.9-2.1-1.4c-0.7-0.5-0.8-0.4-2.5-1.3c-1.1-0.5-1.6-0.9-2.4-1.3
					c-2-1.1-3.7-1.8-5.2-2.5c-2-0.9-2.1-1-8.3-4.1c-7.4-3.7-8.9-4.3-12.7-6.2c-7.9-3.9-14-7.2-18.8-9.9c-8-4.4-13.9-7.8-15.8-9
					c-4.8-2.8-7.2-4.3-10-6c-2.1-1.4-4.4-2.9-8.2-5.2c-0.3-0.2-2.4-1.5-5.3-3.1c-3-1.6-4-2.1-4.8-2.4c-0.9-0.4-0.7-0.2-4.4-1.4
					c-3-1-3.9-1.3-4.1-1c-0.3,0.5,1.1,1.9,1.5,2.4c7.4,7.7,10.3,9.8,10.3,9.8c6.8,5.2,11.6,8.5,14.2,10.3c5,3.4,7,4.6,8.8,5.5
					c2.1,1.1,2.8,1.3,6.4,3.2c2.1,1.1,2.9,1.6,5.7,3.1c0.8,0.4,1.7,0.9,4.4,2.2c4.1,2.1,6.2,3.2,7.5,3.8c4.9,2.4,4.8,2.1,10,4.6
					c1.6,0.8,0.8,0.4,9.3,4.8c5,2.6,6.6,3.4,6.5,3.7c-0.1,0.3-1.8-0.1-6.3-1.3c-8.2-2.1-12.7-3.4-12.7-3.4c0,0-4.5-1.3-12-3.4
					c-8.5-2.4-8-2.2-13.6-3.8c-5.3-1.5-6.6-1.9-10.7-3c-2.6-0.7-5.5-1.4-7.7-2c-2.7-0.7-4.1-1.1-5.7-1.5c-2.7-0.7-3.1-0.7-6.4-1.5
					c-2.8-0.7-2.8-0.7-5.1-1.2c-2.5-0.6-2.5-0.5-5.2-1.2c-3-0.7-3.3-0.8-5.2-1.2c-0.4-0.1-1.6-0.3-4-0.8c-1.6-0.3-3.2-0.6-5.2-0.8
					c-1.7-0.2-2.9-0.4-3-0.2c0,0.2,1.1,0.6,2.7,1.3c0.5,0.2,1,0.5,1.5,0.7c1.6,0.8,2.8,1.3,3.2,1.6c1.8,0.9,3.7,1.7,6.7,2.8
					c3.2,1.3,5.9,2.2,7.4,2.7c1.8,0.6,1.7,0.5,5.2,1.7c4.5,1.5,4.8,1.6,8.5,2.8c3.1,1,5.5,1.7,6.9,2.2c1.8,0.6,2.1,0.6,7.3,2.2
					c4.4,1.3,4.5,1.3,7.3,2.2c4.2,1.2,6.3,1.8,8.1,2.3c4.5,1.3,7.8,2.1,9.2,2.4c9.1,2.3,27.7,7.7,27.5,8.6c-0.1,0.4-3.2-0.1-9.5-1
					c-5.7-0.9-10.5-1.7-13.9-2.4c-9.2-1.7-17-2.9-23.2-3.7c-8.7-1.2-6.6-0.7-17.9-2.2c-3.3-0.4-6.3-0.8-10.5-1c-4.5-0.2-8,0-10,0.1
					c-2.1,0.1-3.8,0.3-7.1,0.7c-5.7,0.7-6.4,1-6.4,1.2c0,0.2,0.5,0.3,1.6,0.6c0.8,0.2,1.4,0.3,1.9,0.4c0.2,0,0.3,0,0.5,0.1
					c0.8,0.1,1.4,0.3,1.5,0.3c0.4,0.1,1.3,0.3,3.3,0.6c2,0.3,2,0.3,3.1,0.5c1.2,0.2,1.1,0.2,2.5,0.5c1.2,0.2,1.4,0.2,4,0.7
					c2,0.3,2.3,0.4,3.9,0.7c2.1,0.3,3.6,0.6,5.8,0.9c2.9,0.5,4.4,0.7,6,0.9c2.3,0.3,2.4,0.3,6.1,0.8c2.2,0.3,3.3,0.5,4.5,0.7
					c2.5,0.4,3.7,0.6,5.9,1c3,0.5,3.7,0.6,8,1.3c4.4,0.7,7.7,1.3,9.8,1.7c0,0,8.7,1.5,19.8,4.8c1.3,0.4,2,0.6,2,0.8
					c-0.1,0.5-5,0.2-12.3,0.1c-0.5,0-10.7-0.2-21.7,0.1c-3.7,0.1-6.4,0.2-9.4,0.4c-8.1,0.4-12.2,0.6-17.5,1.1
					c-5.4,0.5-3.1,0.5-15.2,2.1c-1.8,0.2-5.8,0.7-10.9,1.9c-3.2,0.7-7.2,1.6-7.1,2.2c0.1,0.9,7.9,0.8,10.9,0.7
					c3.1,0,5.6-0.2,13.9-0.7c10-0.7,10.1-0.8,13.4-0.9c4.6-0.2,3.7,0,12.8-0.2c0.7,0,6.4-0.1,13.4-0.2c2.2,0,4.7,0,8.1,0.4
					c2,0.2,3.5,0.5,5.5,0.9c4.8,0.9,7.1,1.4,7.1,1.9c0,0.4-1.8,0.8-13.1,1.9c-7.5,0.7-8.1,0.7-11.6,1.1c-1.5,0.2-6.1,0.8-12,1.9
					c-5.2,1-9,1.9-12,2.6c-1.6,0.4-5.9,1.4-11.2,3c-4.8,1.4-7.2,2.1-7.1,2.5c0.1,0.7,6.2,0.3,15-0.3c5-0.3,8.8-0.7,9.7-0.8
					c5.9-0.5,11-1.1,11-1.1c3.9-0.5,5-0.6,7.8-0.8c2-0.1,3.6-0.2,6.8-0.3c1.6,0,4.9-0.1,9,0c2.7,0.1,4.1,0.1,4.1,0.4
					c0.2,1-11.5,4.2-16.8,5.6c-6.4,1.7-9,2.2-15.1,4.1c-1.2,0.4-3.3,1.1-7.5,2.5c-2.1,0.7-4.9,1.7-8.3,3.2c-2.9,1.3-3.8,1.7-3.7,2.1
					c0.1,0.5,2.1,0.6,3.6,0.5c1.6-0.2,1.8-0.6,3.9-1.1c1.7-0.4,3.1-0.6,4.9-0.7c1.2-0.1,2.4-0.2,4-0.2c1.5,0,1.6,0.2,3.1,0.2
					c1.2,0,2.1-0.1,3.8-0.2c2.6-0.2,3.4-0.4,4.4,0.2c0.4,0.2,0.9,0.5,1,1.1c0.3,1.4-2.4,2.6-2.2,3.3c0.2,0.5,1.8,0.1,4.4,0.1
					c1.2,0,2.3,0.1,4.4,0.3c2.4,0.2,4.6,0.4,6.8,1c1.2,0.3,1.7,0.6,8.7,4.6c4.7,2.7,5.1,2.9,5.9,3.7c2.3,2.1,2,2.9,4.5,5.2
					c2.4,2.2,4.7,3.5,5.7,4c2.4,1.2,2.7,0.8,5.8,2.3c1.7,0.8,3.1,1.5,4.8,2.7c2.4,1.8,2.3,2.5,4.2,3.4c0.5,0.2,2.3,1.1,4.8,1
					c1.2,0,2.5,0,3.8-0.8c1-0.6,1.1-1.1,2.2-1.7c1.4-0.7,3.1-0.7,3.3-0.3c0.3,0.7-3.6,1.9-3.8,4.6c-0.1,0.9,0.2,2,0.9,2.5
					c0.6,0.5,1.1,0.3,2.1,0.5c1.5,0.3,1.8,0.8,4.5,2.3c1.4,0.8,2.2,1.2,2.8,1.4c2.5,0.8,3.3,0,5.5,0.7c0.3,0.1,1.5,0.8,3.8,2.2
					c3.6,2.2,3.9,2.4,4.8,2.5c2,0.3,2.6-0.6,3.9,0c1.3,0.6,1.1,1.7,2.2,3.1c1,1.2,1.9,1.4,6.8,3.1c2.7,0.9,4.3,1.5,6.3,2.3
					c2.7,1.1,4.8,2.2,5.9,2.7c3.6,1.8,3.9,2.2,6.8,3.6c0.5,0.2,1.8,0.7,4.3,1.8c3.4,1.4,3.6,1.5,5.1,2.1c3.1,1.3,2.9,1.4,5.3,2.4
					c2.4,1,4.3,1.8,6.8,2.3c1.2,0.3,2.1,0.4,3,0.5c0.4,0,1.2,0.1,4.2,0.3c2.1,0.1,3.2,0.2,4.9,0.2c1.2,0,1.9,0,3.3,0.1
					c1.7,0.1,2.5,0.2,3.4,0.5c0.8,0.2,1.3,0.5,1.8,0.7c1,0.5,1.4,0.8,2.5,1.4c0.5,0.2,1,0.5,1.7,0.8c1.3,0.5,3.6,1.4,6.8,1.7
					c0.5,0,2.7,0.2,5.6-0.3c2.6-0.4,2.8-0.9,5.2-1.3c1.3-0.2,2.9-0.1,6.1,0c4,0.2,4.3,0.3,7.6,0.5c3.8,0.1,5,0,5.1,0.3
					c0.1,0.4-2.2,1.1-11,3.4c-5.2,1.3-7.8,2-10.8,2.7c-1.7,0.4-3.1,0.7-4.3,1c-7.1,1.6-8.1,1.7-13.7,2.9c-4.2,0.9-3.7,0.9-9.5,2.2
					c-1.2,0.3-2.9,0.7-5.2,1.3c-0.9,0.3-0.9,0.3-3.6,1c-1.9,0.6-3.9,1.2-5.8,1.7c-3.1,0.7-4.3,0.7-4.5,1.5c-0.2,0.6,0.5,1.4,1.6,2.8
					c0.3,0.4,0.8,1,1.5,1.6c2.8,2.5,6.5,3.7,6.5,3.7c2.2,0.7,5.4,1.3,8.3,1.3c0.7,0,2,0,3.5,0.7c1,0.5,1.6,1.2,2.2,1.9
					c0,0,1.8,1.9,4.9,3.7c1.4,0.9,3,1.4,6.1,2.3c3.6,1.1,6.4,1.7,7,1.8c1.7,0.3,3.4,0.5,6.8,0.8c6.8,0.7,6.4,0.5,8.2,0.8
					c1.5,0.3,6.8,1.3,8.6,3.7c0.2,0.2,0.8,1.1,1.9,2.2c0.7,0.8,1.1,1.1,1.4,1.3c1.6,0.9,3.2-0.7,7.2-1.8c2.3-0.6,4.2-0.8,5.3-0.8
					c2.1-0.1,3.6-0.1,5.3,0.6c2.1,0.8,2.3,1.8,4.2,2.3c1.3,0.3,2.2,0.2,3.9-0.1c2.8-0.4,5.6-0.5,8.4-0.8c4-0.4,6.1-0.6,7.3-0.6
					c3.5,0,4.3,0.5,6.5-0.1c1.3-0.3,3.8-0.9,5-2.9c0.7-1.2,0.4-1.8,1.2-2.7c1.4-1.5,3.9-1.2,4.5-1.1c1.8,0.2,2.1,0.9,3.9,1.4
					c1.4,0.4,1.9,0.2,5.9,0c3.4-0.2,5.1-0.2,7,0c1.4,0.2,2.7,0.5,5.3,1.1c3.2,0.8,3.2,1,5.3,1.4c2.3,0.5,4.2,0.9,6.8,0.8
					c0.6,0,3-0.1,5.9-0.9c0.8-0.2,3.3-1,6.3-2.8c1-0.6,4.2-2.6,7.5-6.7c2.2-2.7,4.1-5.9,6.5-9.7c1.4-2.2,2.3-3.8,4.2-4.7
					c1.8-0.8,3.7-0.6,5.1-0.5c1.7,0.2,2,0.5,5.9,1.6c2.3,0.6,3.4,0.9,4.8,1.1c2.2,0.3,3.8,0.2,5.3,0c2.9-0.3,3.4-0.7,3.7-1.1
					c0.4-0.7,0.2-1.6-0.3-2.2c-0.6-0.6-1.7-0.4-2.7-0.3c-1.2,0.2-1.4,0.5-2.5,0.7c-0.7,0.1-1.8,0.2-2.2-0.5
					c-0.3-0.3-0.4-0.9-0.2-1.3c0.4-0.8,1.5-0.5,2.1-1.4c0,0,0.4-0.6,0.2-1.3c-0.2-0.7-1-1.1-1.6-1.2c-0.9-0.1-1.5,0.5-2.3,1
					c-1.5,0.8-3.3,0.6-6.9,0.1c-1.9-0.3-4.1-0.6-4.1-1.2c0-0.4,0.6-0.7,1.4-1.1c3.7-1.8,4.6-1.5,6.3-2.5c2.2-1.3,1.4-2.4,4.3-4.4
					c1.6-1.2,2.8-1.6,3.6-1.8c0.6-0.2,1.7-0.4,3-0.3c1.1,0.1,1.6,0.4,3.1,0.6c1.1,0.1,1.8,0.2,2-0.2c0.4-0.6-1.6-1.8-1.3-2.9
					c0.2-0.7,1.1-0.8,3.5-1.8c1.5-0.6,3-1.4,4.5-2.2c2.9-1.4,3.2-1.5,4-1.8c1-0.3,2.1-0.6,3.5-0.7c1.6,0,2.2,0.4,4,0.8
					c2.6,0.5,4.8,0.4,5.9,0.3c2.2-0.2,2.2-0.5,5.9-1.2c1.6-0.3,3.2-0.6,5.3-0.7c2-0.1,3.9,0,7.6,0.2c4.8,0.3,4.4,0.4,5.9,0.4
					c0.7,0,1.7-0.1,7.3-1.1c2-0.4,3.1-0.6,4.5-0.8c5.3-1.1,9.8-2.2,12.5-2.8c3.8-1,3.7-1,11.4-3.1c10.2-2.7,9.3-2.4,12.3-3.3
					c5.8-1.8,10.9-3.8,14.4-5.2c0,0,2.4-1.3,10.4-3.7c3.9-1.1,5.6-1.3,6.2-1.4c4.6-0.5,8.4,0,8.4,0c1.9,0.4,3.5,0.5,4.6,0.6
					c2,0.1,2.6-0.1,3.1-0.6c0.7-0.7,0.7-1.8,0.7-2.2c0.2-0.4,0.5-1,1-1.3c1-0.6,2.2-0.1,3.8,0.6c2.8,1.1,4.2,1.7,4.8,2
					c0.5,0.2,2.7,1.2,7,3c4.8,2,6.7,2.7,8.3,1.9c0.4-0.2,0.9-0.5,1.2-1c1-2-1.9-5.5-3.7-7.6c0,0-1.9-2.3-3.9-5.6
					c-0.2-0.3-0.6-1-0.5-1.9c0-0.1,0.2-0.9,0.8-1.4c0.4-0.3,0.9-0.4,2.9,0.1c1.4,0.3,2.6,0.7,3.7,1.1c0.7,0.2,1.5,0.5,2.6,0.8
					c0.5,0.1,0.8,0.2,1,0.2c0.7,0.2,1.8,0.5,4.3,1.3c2.1,0.6,3.5,1.1,4.7,1.5c2.2,0.8,2.7,1.1,4.2,1.4c0.9,0.2,1.2,0.2,2.5,0.5
					c1.4,0.3,2,0.5,3.2,0.8c0.9,0.3,2.4,0.5,5.4,1.1c1.5,0.3,2.6,0.5,3.9,0.1c0.5-0.2,1.3-0.4,1.4-0.9c0.1-0.5-0.4-1-1.9-2.2
					c-1.4-1.2-2.1-1.8-2.4-2.1c-3.1-2.3-5.4-3.7-5.4-3.7c-2.4-1.4-2.2-1.1-5.8-3.1c-5.2-2.9-4.6-2.9-7.1-4c-2-0.9-3.5-1.3-3.5-1.9
					c0.1-0.5,1.8-0.8,2.6-0.9c0.7-0.1,1.4-0.2,3.2-0.1c0.7,0,1.8,0.1,4.6,0.3c2.3,0.2,2.8,0.2,3.1,0.3c1.4,0.2,2.3,0.4,3.2,0.7
					c1.7,0.4,2.5,0.5,5.4,0.9c3.9,0.6,7,1.1,10.1,1.7c3.8,0.7,3,0.8,9.6,2.2c2.5,0.5,3.5,0.7,5.2,1.3c2.9,1,4.3,1.4,4.5,1.5
					c0.8,0.4,1.7,0.9,2.9,0.7c0.4,0,1.2-0.1,1.7-0.7c0.6-0.8,0.3-1.8,0.2-2.1c-0.5-1.7-2.6-2.4-6.4-3.8c-5.2-1.9-1.5-0.7-8.4-3.3
					c-5-1.8-6-2.1-6.8-2.3c-2.6-0.7-4.2-1.1-6.5-1.4c-2-0.2-3.6-0.2-6-0.9c-1.6-0.5-2.8-0.9-3-1.7c-0.3-1.3,2.2-2.8,3.4-3.6
					c2.2-1.3,4.1-1.9,4.5-2c5.1-1.3,9.6-1.8,10.9-1.9c9.6-0.9,7.8-0.9,11.6-1.2c1.1-0.1,5.4-0.4,10.6-1c0.6-0.1,3.4-0.5,6.6-2.1
					c0.8-0.4,2.7-1.4,2.5-1.9c-0.1-0.5-2.1-0.2-6.8,0.2c-1.1,0.1-4.7,0.4-8.2,0.6c-0.8,0-3.3,0-8.3,0c-2.9,0-4,0-4.2-0.6
					c-0.3-0.9,2.1-2.5,3.6-3.3c2-1.1,3.9-1.5,6.8-2.1c1.2-0.2,1.7-0.4,2.5-0.5c0.5-0.1,0.9-0.1,1.2-0.1c0.8-0.1,1.2,0,1.2-0.1
					c0-0.2-1.1-0.4-2.2-1.4c-0.5-0.4-0.8-0.8-0.8-1.2c0-0.7,0.7-1.2,1.9-2c1-0.7,1.9-1.1,1.9-1.1c0,0-0.9,0.5-0.9,0.5
					c0,0,1.9-1.1,4.3-2.7c0.8-0.5,0.7-0.5,1.4-1c2.2-1.5,3.4-2,5.1-3.1c1.2-0.7,2.2-1.4,4.3-2.9c2.9-2,3.2-2.4,5-3.5
					c0.8-0.5,2.1-1.2,3.1-1.8c1.1-0.6,1.7-0.9,2.6-1.5c0.8-0.5,1.4-0.9,2.2-1.4c1.2-0.8,1.8-1.4,2.4-2.2c0.3-0.5,1.1-1.7,0.7-2.2
					c-0.4-0.6-2.4-0.3-3.7,0.7c-0.4,0.3-0.6,0.6-1.2,0.9c-0.4,0.2-1.4,0.7-1.7,0.4c-0.2-0.2,0.1-0.9,1.4-2.8
					c1.2-1.8,2.2-3.1,2.8-3.8c0.8-1.1,2-2.7,3.3-4.7c1.4-2.2,2.2-3.9,2.3-4.3c0.8-1.8,1.3-3.3,1.6-4.1c0.3-1,2-6.3,1.1-6.8
					c-0.5-0.3-1.7,1.6-4.8,5.3c-2.8,3.4-2.6,2.8-5.9,6.8c-4.4,5.2-4.1,5.5-7.1,8.8c-1.7,1.9-3.3,3.4-6.4,6.4c-2.9,2.8-5,4.8-7.3,6.7
					c-4,3.4-7.2,5.4-11.5,8.2c-6.3,4-11.3,6.5-15.5,8.7c-3.9,2-9.6,4.6-21.1,9.8c0,0-4.5,2-11.8,4.8c-4.4,1.6-5.3,2-7,2.2
					c-0.6,0.1-1.3,0.1-3,0.3c-2.3,0.3-3.4,0.4-4.5,0.7c-1.6,0.4-2,0.7-4.7,1.7c-1.4,0.5-2.7,0.9-5.2,1.8c-2.1,0.7-3.3,1-7.4,2.2
					c-7.6,2.3-6.7,2-8.5,2.5c-3,0.9-6.3,1.8-9.4,2.6c-2.2,0.6-8.9,2.3-17.7,3.7c-2.7,0.4-7.8,1.2-14.4,1.8
					c-3.8,0.3-6.7,0.7-12.5,1.4c-1.2,0.2-3.4,0.4-5.9,1.2c-0.8,0.2-2.1,0.7-3.5,1.2c-1.4,0.6-2.2,0.8-2.5,1
					c-0.8,0.5-1.3,0.8-2.2,0.9c-0.6,0.1-1.2,0.2-1.6-0.2c-0.3-0.3-0.4-0.7-0.2-3.3c0.1-1.6,0.2-1.8,0-2.2c-0.6-1-2.3-1.1-3-1.1
					c-1.4,0-2.6,0.4-3.6,0.7c-1.6,0.6-1.8,1-3,1.1c-0.8,0.1-1.6-0.1-2.2-0.2c-0.7-0.1-1.3-0.2-2-0.6c-0.9-0.4-0.9-0.7-1.6-0.9
					c-0.2,0-1.3-0.4-2.2,0.2c-1,0.7-1,2.1-1,2.7c0,1,0.3,1.3,0.1,1.9c-0.3,1-1.6,1.5-2.3,1.8c-4.4,1.5-8.4,1.6-8.4,1.6
					c-4,0.1-6,0.1-8.2,0.1c-7.6-0.1-7.7-0.5-11-0.3c-4,0.2-7.3,0.9-9.6,1.4c-3.5,0.8-3.2,1.1-10.7,3.4c-3.7,1.1-5.5,1.6-7.6,2
					c-1.8,0.3-3.6,0.7-6.2,0.8c-1.5,0.1-4.1,0.1-7.3-0.3c-2.1-0.3-2.4-0.5-6.8-1.4c-1.5-0.3-4.2-0.9-7.3-1.4
					c-6.7-1.1-7.2-1.1-9.6-1.7c-1.3-0.3-2-0.5-3.3-0.7c-1.7-0.3-2.3-0.3-2.9-0.2c-1.1,0.1-1.2,0.4-2.3,0.6c-0.7,0.1-1.3,0.1-3.1,0.1
					c-1.9-0.1-3.3-0.1-4-0.2c0,0-2-0.1-4.6-0.2c-3.2-0.1-3.6,0-6.8,0c-2.8,0-4.3-0.1-6.5-0.3c-1.1-0.1-3.8-0.4-7.1-1.3
					c-2.7-0.7-4.6-1.4-6.9-2.3c-0.8-0.3-2.9-1.1-9.8-4.4c-4.8-2.3-4.4-2.1-7.3-3.5c-2-0.9-2.3-1-8.7-3.8c-4.7-2.1-4.6-2-5.3-2.3
					c-1.6-0.6-4.8-1.9-9-3.3c-1-0.3-3-0.9-5.8-1.9c-1.9-0.7-3-1-4.2-1.8c-0.9-0.5-2.1-1.3-3.2-2.6c-1-1.2-0.8-1.5-1.7-2.4
					c-0.3-0.3-2.1-2.1-3.7-1.7c-0.5,0.1-0.9,0.5-1.5,0.9c-0.6,0.4-0.9,0.7-1.1,0.9c-0.3,0.3-0.4,0.5-0.7,0.6c-0.4,0.1-0.8,0-1-0.1
					c-0.5-0.2-0.9-0.5-1.3-1.1c-0.5-0.6-0.8-0.9-1.1-1.6c-0.6-1-1.5-1.7-3.3-2.9c-1.3-0.9-2.6-1.6-5.2-2.9c-0.1,0-1.3-0.6-3.7-1.8
					c-1-0.5-2-0.9-3.2-1.3c-1.4-0.5-2-0.5-2.2-0.5c-0.3,0-0.9,0.1-2.2,0.2c-1.1,0.1-1.2,0.2-1.5,0.1c-0.6,0-1.1-0.1-1.9-0.4
					c-1.2-0.4-1.9-0.9-3-1.5c-0.2-0.1-1.1-0.5-2.8-1.4c0,0-1.8-0.9-3.9-1.9c-3.3-1.5-6.7-2.8-8.2-3.4c-3.3-1.3-6.1-2.6-11.7-5.1
					c-6-2.7-10.2-4.9-15.3-7.5c-6.4-3.3-11.2-5.9-14.7-7.9c-6-3.3-9-5-12.9-7.4c-5.2-3.2-9.4-6.1-12.3-8.1c-1.9-1.3-6.9-4.9-10.6-8
					c-0.5-0.4-2.5-2.2-5-4.3c-0.9-0.8-1.4-1.2-1.8-1.6C133,60.7,131.2,59,129.9,57.7"/>
				<path id="XMLID_16638_" class="st4" d="M130.7,81.1c0.3,0.3,0.8,0.7,1.4,1.2c1.2,1,2.1,1.6,2.2,1.7c1.2,0.8,8,6.3,25,20.4
					c1.2,0.6,2.3,0.9,3,1c1.6,0.2,2.5-0.1,4.4,0.1c1,0.1,1.8,0.4,2.2,0.6c0.8,1,1.6,2,2.5,3c3.7,4,7.6,7.1,11.1,9.5
					c5.2,2,10.4,4,15.6,6.1l11.1,5.9l15.3,15.1l17.9,5c-0.8,0-3.7,0.1-6,2.3c-1.3,1.2-1.9,2.6-2.2,3.4c0.7,0.8,1.7,2,3.1,3.4
					c5.2,5.1,10.5,7.4,14.9,9.3c7.5,3.2,15.2,6.4,23.3,9.6c3.9,1.4,8.3,2.7,13.1,3.8c2.4,0.5,4.7,0.9,6.9,1.3c1.4-0.7,3-1.8,4.6-3.2
					c3.1-2.7,4.9-5.7,5.9-7.7c-5.8-5.8-11.7-11.6-17.5-17.4l-51-26.2l-41.2-16.9l-40-19.1l-16.6-11.7c-1-1.7-2.6-3.8-4.8-5.6
					c-0.6-0.5-1.2-0.9-1.7-1.3c-0.4,0-1.2,0.2-1.8,0.7c-0.7,0.7-0.8,1.6-0.8,3C130.5,78.8,130.5,79.8,130.7,81.1"/>
				<path id="XMLID_16637_" class="st4" d="M410.3,215.9c0.5-0.2,1-0.3,1.5-0.5c0.3-0.1,0.7-0.2,1.3-0.1c0.4,0.1,0.7,0.3,0.9,0.5
					c1.7,1.3,2.2,1.6,2.1,1.7c-0.1,0.2-1.6-0.3-1.6-0.2c0,0.1,0.3,0.2,0.7,0.4c0.4,0.2,1.2,0.6,1.8,1.2c0.4,0.4,0.7,0.8,1,1.3
					c0.3,0.4,0.6,1,0.8,1.6c0.4,1.1,0.5,2.1,0.6,2.8c1.6-2.8,2.5-5.4,3-7.7c0-0.2,0.1-0.4,0.1-0.6c0.8-3.8-0.1-7-0.6-8.4
					c0,0-1.1-3.9-3.4-6.5c-0.4-0.5-0.8-1-1.5-1.1c-0.4-0.1-0.7,0-1.4,0c-0.5,0-0.9-0.1-1.2-0.2c-0.7-0.3-1.7-0.6-3-0.6
					c-1.3,0-2.2,0.3-2.4,0.3c-0.8,0.2-1.3,0.5-2,0.9c-0.4,0.2-1,0.5-1.6,1c-0.8,0.6-1.3,1.2-1.7,1.6c-0.3,0.4-0.6,0.7-0.8,0.9
					c-0.1,0.2-0.3,0.5-0.6,0.8c-0.2,0.3-0.5,0.4-0.8,0.7c-0.2,0.1-0.6,0.4-1.1,0.7c-0.9,0.5-1.4,0.5-2.7,0.9c-0.4,0.1-1,0.3-1.8,0.7
					c-0.4,0.2-0.9,0.5-1.6,0.9c-0.4,0.2-0.6,0.3-0.8,0.7c-0.2,0.3-0.2,0.7-0.1,0.9c0.3,0.2,0.8,0.6,1.4,0.8c0.8,0.3,1.5,0.4,1.9,0.4
					c2.7,0.2,2.4,0.6,4,0.6c1.8,0,2.9,0,3.8-0.7c0.6-0.4,0.9-0.9,1.7-1.1c0.3-0.1,1.1-0.3,1.7,0.1c0.7,0.5,0.9,1.6,0.5,2.2
					c-0.4,0.6-1.3,0.2-1.8,0.9c-0.3,0.4-0.3,0.9-0.1,1.3c0.3,0.7,1.2,0.8,1.8,0.9C408.7,216.1,409.4,216.2,410.3,215.9"/>
				<path id="XMLID_16636_" class="st5" d="M410.3,215.9c0.5-0.2,1-0.3,1.5-0.5c0.3-0.1,0.7-0.2,1.3-0.1c0.4,0.1,0.7,0.3,0.9,0.5
					c1.7,1.3,2.2,1.6,2.1,1.7c-0.1,0.2-1.6-0.3-1.6-0.2c0,0.1,0.3,0.2,0.7,0.4c0.4,0.2,1.2,0.6,1.8,1.2c0.4,0.4,0.7,0.8,1,1.3
					c0.3,0.4,0.6,1,0.8,1.6c0.4,1.1,0.5,2.1,0.6,2.8c1.6-2.8,2.5-5.4,3-7.7c0-0.2,0.1-0.4,0.1-0.6c0.8-3.8-0.1-7-0.6-8.4
					c0,0-1.1-3.9-3.4-6.5c-0.4-0.5-0.8-1-1.5-1.1c-0.4-0.1-0.7,0-1.4,0c-0.5,0-0.9-0.1-1.2-0.2c-0.7-0.3-1.7-0.6-3-0.6
					c-1.3,0-2.2,0.3-2.4,0.3c-0.8,0.2-1.3,0.5-2,0.9c-0.4,0.2-1,0.5-1.6,1c-0.8,0.6-1.3,1.2-1.7,1.6c-0.3,0.4-0.6,0.7-0.8,0.9
					c-0.1,0.2-0.3,0.5-0.6,0.8c-0.2,0.3-0.5,0.4-0.8,0.7c-0.2,0.1-0.6,0.4-1.1,0.7c-0.9,0.5-1.4,0.5-2.7,0.9c-0.4,0.1-1,0.3-1.8,0.7
					c-0.4,0.2-0.9,0.5-1.6,0.9c-0.4,0.2-0.6,0.3-0.8,0.7c-0.2,0.3-0.2,0.7-0.1,0.9c0.3,0.2,0.8,0.6,1.4,0.8c0.8,0.3,1.5,0.4,1.9,0.4
					c2.7,0.2,2.4,0.6,4,0.6c1.8,0,2.9,0,3.8-0.7c0.6-0.4,0.9-0.9,1.7-1.1c0.3-0.1,1.1-0.3,1.7,0.1c0.7,0.5,0.9,1.6,0.5,2.2
					c-0.4,0.6-1.3,0.2-1.8,0.9c-0.3,0.4-0.3,0.9-0.1,1.3c0.3,0.7,1.2,0.8,1.8,0.9C408.7,216.1,409.4,216.2,410.3,215.9z"/>
				<g id="XMLID_16619_" class="st6">
					<g id="XMLID_16620_">
						<defs>
							<rect id="XMLID_16621_" x="191.5" y="46.7" width="299.2" height="299.2"/>
						</defs>
						<clipPath id="XMLID_5_">
							<use xlink:href="#XMLID_16621_"  style="overflow:visible;"/>
						</clipPath>
						<path id="XMLID_16632_" class="st7" d="M258.2,101.2c-3,2.6-5.9,5.4-8.7,8.3l75.4,86.9l-75.4,86.9c2.8,3,5.7,5.8,8.8,8.4H424
							c3.1-2.7,6-5.5,8.8-8.4l-75.4-86.9l75.4-86.9c-2.8-2.9-5.6-5.7-8.7-8.3H258.2z M294.5,124.1H388l-46.8,53.8L294.5,124.1z
							 M341.2,214.8l46.8,53.8h-93.5L341.2,214.8z"/>
						<path id="XMLID_16628_" class="st8" d="M258.2,101.2c-3,2.6-5.9,5.4-8.7,8.3l75.4,86.9l-75.4,86.9c2.8,3,5.7,5.8,8.8,8.4H424
							c3.1-2.7,6-5.5,8.8-8.4l-75.4-86.9l75.4-86.9c-2.8-2.9-5.6-5.7-8.7-8.3H258.2z M294.5,124.1H388l-46.8,53.8L294.5,124.1z
							 M341.2,214.8l46.8,53.8h-93.5L341.2,214.8z"/>
						<path id="XMLID_16625_" class="st7" d="M341.2,345.4c82.3,0,149.1-66.7,149.1-149.1S423.5,47.3,341.2,47.3
							S192.1,114,192.1,196.3S258.8,345.4,341.2,345.4 M467.5,196.3c0,69.7-56.5,126.3-126.3,126.3S215,266.1,215,196.3
							S271.5,70.1,341.2,70.1S467.5,126.6,467.5,196.3"/>
						<path id="XMLID_16622_" class="st9" d="M341.2,345.4c82.3,0,149.1-66.7,149.1-149.1S423.5,47.3,341.2,47.3
							S192.1,114,192.1,196.3S258.8,345.4,341.2,345.4z M467.5,196.3c0,69.7-56.5,126.3-126.3,126.3S215,266.1,215,196.3
							S271.5,70.1,341.2,70.1S467.5,126.6,467.5,196.3z"/>
					</g>
				</g>
				<path id="XMLID_16618_" class="st3" d="M463.8,177.3c0.7,4.7,0.7,4.8,0.7,5.3c0.3,2,1,4.8,2.2,8.2c2.3-0.1,4.1-0.3,5.4-0.5
					c3.8-0.5,6.8-1.2,9.1-1.7c0.5-0.1,2.5-0.6,5-1.3c1.6-0.4,3-0.8,4.1-1.2c0.3-0.8,0.7-2,0.9-3.4c0.1-0.6,0.4-2.4,0.2-5.3
					c-0.1-1.4-0.2-1.6-0.7-4.6c-0.7-4.4-0.7-5.2-1.3-8c-0.3-1.5-0.6-2.6-0.8-3.4c-0.3-1-0.6-1.7-0.9-2.2c-0.2-0.4-0.4-0.7-0.5-1.3
					c-0.1-0.4-0.1-0.7-0.1-1.4c0-0.9,0.1-1.7,0.1-1.7c0.1-0.5,0.2-0.9,0-1.5c-0.1-0.6-0.3-0.8-0.4-0.8c-0.1-0.1-0.2-0.1-0.9-0.4
					c-0.5-0.2-0.8-0.2-1-0.3c-0.3,0-0.6-0.1-1.1,0c-1.5,0.3-2.7,0.6-3.6,0.9c-1.8,0.7-2.1,1.1-3.3,1.1c-0.9,0-2.2-0.2-3.4-0.8
					c-0.7-0.4-0.9-0.7-1.5-0.9c-0.9-0.3-1.8,0-2.4,0.2c-0.2,0.3-0.5,0.7-0.8,1.3c-0.4,0.8-0.3,1-0.7,2c-0.3,0.8-0.7,1.4-1.1,2.1
					c-0.2,0.3-0.4,0.6-0.5,0.8c-0.1,0-0.2,0.1-0.3,0.2c-0.1,0-0.2,0.1-0.4,0.1c-0.2,0.1-0.3,0.1-0.5,0.1c-0.4,0.1-0.6,0.2-0.9,0.3
					c-0.3,0.1-0.7,0.2-1.4,0.3c-0.5,0.1-1.1,0.2-1.9,0.3c0,0.8,0.1,2,0.3,3.5c0.3,2.6,0.5,3.6,1,6.7
					C462.8,170.4,463.1,172.7,463.8,177.3"/>
			</g>
			<g id="XMLID_16577_" class="st2">
				<defs>
					<rect id="XMLID_16578_" width="694.5" height="383.5"/>
				</defs>
				<clipPath id="XMLID_7_">
					<use xlink:href="#XMLID_16578_"  style="overflow:visible;"/>
				</clipPath>
				<path id="XMLID_16579_" class="st18" d="M381.4,204.7c-1.4,0.2-2.9-2.8-3.4-4.3c-0.1-0.4-0.5-1.6-0.6-3.3c0-1.3,0.1-2.3,0.3-3
					c0.2-1.1,0.6-3.1,2-5.2c0.7-1.1,1.4-2.1,2.7-2.9c1.5-0.8,3-0.9,3.7-0.9c0.2,0,1.4,0,2.8,0.4c0.3,0.1,0.5,0.2,2,0.7
					c1.4,0.5,2.1,0.8,2.4,0.9c2.2,0.9,5.7,2,7,2c1.9,0,2.4-0.7,3.6-0.3c0.1,0,1.4,0.5,1.9,1.9c0.3,0.8,0.3,2.1-0.4,2.5
					c-0.5,0.3-0.8-0.1-1.8,0c-0.8,0.1-0.8,0.4-2.5,1.4c-1.4,0.8-1.5,0.7-2.1,1.2c-0.7,0.6-1,1.4-1.3,1.8c-0.4,0.8-0.5,1.4-0.6,1.8
					c-0.3,1.5,0.1,1.8-0.3,2.7c-0.2,0.4-0.6,0.8-1.5,1.6c-0.8,0.8-1.5,1.2-1.6,1.4c-0.6,0.4-1.5,1.1-2.9,1.7
					c-1.3,0.5-1.9,0.8-2.5,0.5c-0.7-0.3-0.9-1.2-1.1-1.9c-0.1-0.5-0.2-1.1-0.2-2.3c0-0.7,0-0.9-0.1-2.2c0-0.5-0.1-1-0.1-1.7
					c-0.1-0.9-0.2-1.4-0.4-1.5c-0.5-0.3-1.8,0.6-2.4,1.8c-0.1,0.2-0.3,0.9-0.6,2.3c-0.2,0.9-0.3,1.3-0.6,1.7
					C382.5,203.9,382,204.6,381.4,204.7"/>
			</g>
		</g>
	</g>
</g>
</svg>
